.Xil/Vivado-3279439-carvouno3.ics.forth.gr/hw_ila_data_2/zip_work/waveform.vcd
$date
        2023-May-25 10:49:29
$end
$version
        Vivado v2021.2 (64-bit)
$end
$timescale
        1ps
$end
$scope module dut $end
$var reg 1 " sdv_kintex_bd_i/system_ila_1/inst/probe0_1 $end
$var reg 2 # sdv_kintex_bd_i/system_ila_1/inst/net_slot_0_axi_ar_cnt [1:0] $end
$var reg 64 % sdv_kintex_bd_i/system_ila_1/inst/net_slot_0_axi_araddr [63:0] $end
$var reg 2 e sdv_kintex_bd_i/system_ila_1/inst/net_slot_0_axi_arburst [1:0] $end
$var reg 4 g sdv_kintex_bd_i/system_ila_1/inst/net_slot_0_axi_arcache [3:0] $end
$var reg 4 k sdv_kintex_bd_i/system_ila_1/inst/net_slot_0_axi_arid [3:0] $end
$var reg 8 o sdv_kintex_bd_i/system_ila_1/inst/net_slot_0_axi_arlen [7:0] $end
$var reg 1 w sdv_kintex_bd_i/system_ila_1/inst/net_slot_0_axi_arlock $end
$var reg 3 x sdv_kintex_bd_i/system_ila_1/inst/net_slot_0_axi_arprot [2:0] $end
$var reg 4 { sdv_kintex_bd_i/system_ila_1/inst/net_slot_0_axi_arqos [3:0] $end
$var reg 4 !" sdv_kintex_bd_i/system_ila_1/inst/net_slot_0_axi_arregion [3:0] $end
$var reg 3 %" sdv_kintex_bd_i/system_ila_1/inst/net_slot_0_axi_arsize [2:0] $end
$var reg 1 (" sdv_kintex_bd_i/system_ila_1/inst/net_slot_0_axi_aruser $end
$var reg 2 )" sdv_kintex_bd_i/system_ila_1/inst/net_slot_0_axi_aw_cnt [1:0] $end
$var reg 64 +" sdv_kintex_bd_i/system_ila_1/inst/net_slot_0_axi_awaddr [63:0] $end
$var reg 2 k" sdv_kintex_bd_i/system_ila_1/inst/net_slot_0_axi_awburst [1:0] $end
$var reg 4 m" sdv_kintex_bd_i/system_ila_1/inst/net_slot_0_axi_awcache [3:0] $end
$var reg 4 q" sdv_kintex_bd_i/system_ila_1/inst/net_slot_0_axi_awid [3:0] $end
$var reg 8 u" sdv_kintex_bd_i/system_ila_1/inst/net_slot_0_axi_awlen [7:0] $end
$var reg 1 }" sdv_kintex_bd_i/system_ila_1/inst/net_slot_0_axi_awlock $end
$var reg 3 ~" sdv_kintex_bd_i/system_ila_1/inst/net_slot_0_axi_awprot [2:0] $end
$var reg 4 ## sdv_kintex_bd_i/system_ila_1/inst/net_slot_0_axi_awqos [3:0] $end
$var reg 4 '# sdv_kintex_bd_i/system_ila_1/inst/net_slot_0_axi_awregion [3:0] $end
$var reg 3 +# sdv_kintex_bd_i/system_ila_1/inst/net_slot_0_axi_awsize [2:0] $end
$var reg 1 .# sdv_kintex_bd_i/system_ila_1/inst/net_slot_0_axi_awuser $end
$var reg 2 /# sdv_kintex_bd_i/system_ila_1/inst/net_slot_0_axi_b_cnt [1:0] $end
$var reg 4 1# sdv_kintex_bd_i/system_ila_1/inst/net_slot_0_axi_bid [3:0] $end
$var reg 2 5# sdv_kintex_bd_i/system_ila_1/inst/net_slot_0_axi_bresp [1:0] $end
$var reg 2 7# sdv_kintex_bd_i/system_ila_1/inst/net_slot_0_axi_r_cnt [1:0] $end
$var reg 64 9# sdv_kintex_bd_i/system_ila_1/inst/net_slot_0_axi_rdata [63:0] $end
$var reg 4 y# sdv_kintex_bd_i/system_ila_1/inst/net_slot_0_axi_rid [3:0] $end
$var reg 2 }# sdv_kintex_bd_i/system_ila_1/inst/net_slot_0_axi_rresp [1:0] $end
$var reg 64 !$ sdv_kintex_bd_i/system_ila_1/inst/net_slot_0_axi_wdata [63:0] $end
$var reg 8 a$ sdv_kintex_bd_i/system_ila_1/inst/net_slot_0_axi_wstrb [7:0] $end
$var reg 1 i$ sdv_kintex_bd_i/system_ila_1/inst/net_slot_0_axi_awvalid $end
$var reg 2 j$ sdv_kintex_bd_i/system_ila_1/inst/net_slot_0_axi_aw_ctrl [1:0] $end
$var reg 1 l$ sdv_kintex_bd_i/system_ila_1/inst/net_slot_0_axi_awready $end
$var reg 3 m$ sdv_kintex_bd_i/system_ila_1/inst/net_slot_0_axi_w_ctrl [2:0] $end
$var reg 1 p$ sdv_kintex_bd_i/system_ila_1/inst/net_slot_0_axi_wvalid $end
$var reg 1 q$ sdv_kintex_bd_i/system_ila_1/inst/net_slot_0_axi_wready $end
$var reg 1 r$ sdv_kintex_bd_i/system_ila_1/inst/net_slot_0_axi_wlast $end
$var reg 1 s$ sdv_kintex_bd_i/system_ila_1/inst/net_slot_0_axi_bvalid $end
$var reg 2 t$ sdv_kintex_bd_i/system_ila_1/inst/net_slot_0_axi_b_ctrl [1:0] $end
$var reg 1 v$ sdv_kintex_bd_i/system_ila_1/inst/net_slot_0_axi_bready $end
$var reg 2 w$ sdv_kintex_bd_i/system_ila_1/inst/net_slot_0_axi_ar_ctrl [1:0] $end
$var reg 1 y$ sdv_kintex_bd_i/system_ila_1/inst/net_slot_0_axi_arvalid $end
$var reg 1 z$ sdv_kintex_bd_i/system_ila_1/inst/net_slot_0_axi_arready $end
$var reg 1 {$ sdv_kintex_bd_i/system_ila_1/inst/net_slot_0_axi_rvalid $end
$var reg 3 |$ sdv_kintex_bd_i/system_ila_1/inst/net_slot_0_axi_r_ctrl [2:0] $end
$var reg 1 !% sdv_kintex_bd_i/system_ila_1/inst/net_slot_0_axi_rready $end
$var reg 1 "% sdv_kintex_bd_i/system_ila_1/inst/net_slot_0_axi_rlast $end
$var reg 2 #% sdv_kintex_bd_i/system_ila_1/inst/net_slot_1_axi_ar_cnt [1:0] $end
$var reg 31 %% sdv_kintex_bd_i/system_ila_1/inst/net_slot_1_axi_araddr [30:0] $end
$var reg 2 D% sdv_kintex_bd_i/system_ila_1/inst/net_slot_1_axi_arburst [1:0] $end
$var reg 4 F% sdv_kintex_bd_i/system_ila_1/inst/net_slot_1_axi_arcache [3:0] $end
$var reg 7 J% sdv_kintex_bd_i/system_ila_1/inst/net_slot_1_axi_arid [6:0] $end
$var reg 8 Q% sdv_kintex_bd_i/system_ila_1/inst/net_slot_1_axi_arlen [7:0] $end
$var reg 1 Y% sdv_kintex_bd_i/system_ila_1/inst/net_slot_1_axi_arlock $end
$var reg 3 Z% sdv_kintex_bd_i/system_ila_1/inst/net_slot_1_axi_arprot [2:0] $end
$var reg 4 ]% sdv_kintex_bd_i/system_ila_1/inst/net_slot_1_axi_arqos [3:0] $end
$var reg 3 a% sdv_kintex_bd_i/system_ila_1/inst/net_slot_1_axi_arsize [2:0] $end
$var reg 1 d% sdv_kintex_bd_i/system_ila_1/inst/net_slot_1_axi_aruser $end
$var reg 2 e% sdv_kintex_bd_i/system_ila_1/inst/net_slot_1_axi_aw_cnt [1:0] $end
$var reg 31 g% sdv_kintex_bd_i/system_ila_1/inst/net_slot_1_axi_awaddr [30:0] $end
$var reg 2 (& sdv_kintex_bd_i/system_ila_1/inst/net_slot_1_axi_awburst [1:0] $end
$var reg 4 *& sdv_kintex_bd_i/system_ila_1/inst/net_slot_1_axi_awcache [3:0] $end
$var reg 7 .& sdv_kintex_bd_i/system_ila_1/inst/net_slot_1_axi_awid [6:0] $end
$var reg 8 5& sdv_kintex_bd_i/system_ila_1/inst/net_slot_1_axi_awlen [7:0] $end
$var reg 1 =& sdv_kintex_bd_i/system_ila_1/inst/net_slot_1_axi_awlock $end
$var reg 3 >& sdv_kintex_bd_i/system_ila_1/inst/net_slot_1_axi_awprot [2:0] $end
$var reg 4 A& sdv_kintex_bd_i/system_ila_1/inst/net_slot_1_axi_awqos [3:0] $end
$var reg 3 E& sdv_kintex_bd_i/system_ila_1/inst/net_slot_1_axi_awsize [2:0] $end
$var reg 1 H& sdv_kintex_bd_i/system_ila_1/inst/net_slot_1_axi_awuser $end
$var reg 2 I& sdv_kintex_bd_i/system_ila_1/inst/net_slot_1_axi_b_cnt [1:0] $end
$var reg 7 K& sdv_kintex_bd_i/system_ila_1/inst/net_slot_1_axi_bid [6:0] $end
$var reg 2 R& sdv_kintex_bd_i/system_ila_1/inst/net_slot_1_axi_bresp [1:0] $end
$var reg 1 T& sdv_kintex_bd_i/system_ila_1/inst/net_slot_1_axi_buser $end
$var reg 2 U& sdv_kintex_bd_i/system_ila_1/inst/net_slot_1_axi_r_cnt [1:0] $end
$var reg 64 W& sdv_kintex_bd_i/system_ila_1/inst/net_slot_1_axi_rdata [63:0] $end
$var reg 7 9' sdv_kintex_bd_i/system_ila_1/inst/net_slot_1_axi_rid [6:0] $end
$var reg 2 @' sdv_kintex_bd_i/system_ila_1/inst/net_slot_1_axi_rresp [1:0] $end
$var reg 1 B' sdv_kintex_bd_i/system_ila_1/inst/net_slot_1_axi_ruser $end
$var reg 64 C' sdv_kintex_bd_i/system_ila_1/inst/net_slot_1_axi_wdata [63:0] $end
$var reg 8 %( sdv_kintex_bd_i/system_ila_1/inst/net_slot_1_axi_wstrb [7:0] $end
$var reg 1 -( sdv_kintex_bd_i/system_ila_1/inst/net_slot_1_axi_wuser $end
$var reg 2 .( sdv_kintex_bd_i/system_ila_1/inst/net_slot_1_axi_aw_ctrl [1:0] $end
$var reg 1 0( sdv_kintex_bd_i/system_ila_1/inst/net_slot_1_axi_awvalid $end
$var reg 1 1( sdv_kintex_bd_i/system_ila_1/inst/net_slot_1_axi_awready $end
$var reg 3 2( sdv_kintex_bd_i/system_ila_1/inst/net_slot_1_axi_w_ctrl [2:0] $end
$var reg 1 5( sdv_kintex_bd_i/system_ila_1/inst/net_slot_1_axi_wvalid $end
$var reg 1 6( sdv_kintex_bd_i/system_ila_1/inst/net_slot_1_axi_wready $end
$var reg 1 7( sdv_kintex_bd_i/system_ila_1/inst/net_slot_1_axi_wlast $end
$var reg 1 8( sdv_kintex_bd_i/system_ila_1/inst/net_slot_1_axi_bvalid $end
$var reg 2 9( sdv_kintex_bd_i/system_ila_1/inst/net_slot_1_axi_b_ctrl [1:0] $end
$var reg 1 ;( sdv_kintex_bd_i/system_ila_1/inst/net_slot_1_axi_bready $end
$var reg 1 <( sdv_kintex_bd_i/system_ila_1/inst/net_slot_1_axi_arvalid $end
$var reg 2 =( sdv_kintex_bd_i/system_ila_1/inst/net_slot_1_axi_ar_ctrl [1:0] $end
$var reg 1 ?( sdv_kintex_bd_i/system_ila_1/inst/net_slot_1_axi_arready $end
$var reg 3 @( sdv_kintex_bd_i/system_ila_1/inst/net_slot_1_axi_r_ctrl [2:0] $end
$var reg 1 C( sdv_kintex_bd_i/system_ila_1/inst/net_slot_1_axi_rvalid $end
$var reg 1 D( sdv_kintex_bd_i/system_ila_1/inst/net_slot_1_axi_rready $end
$var reg 1 E( sdv_kintex_bd_i/system_ila_1/inst/net_slot_1_axi_rlast $end
$var reg 3 F( AR_Channel__i2_s0___arianer_top_0_M_AXI_ [2:0] $end
$var reg 3 I( AR_Channel__i2_s1___addr_limit_0_m_axi_ [2:0] $end
$var reg 3 L( AW_Channel__i2_s0___arianer_top_0_M_AXI_ [2:0] $end
$var reg 3 O( AW_Channel__i2_s1___addr_limit_0_m_axi_ [2:0] $end
$var reg 3 R( B_Channel__i2_s0___arianer_top_0_M_AXI_ [2:0] $end
$var reg 3 U( B_Channel__i2_s1___addr_limit_0_m_axi_ [2:0] $end
$var reg 3 X( Interface__i2_s0___arianer_top_0_M_AXI_ [2:0] $end
$var reg 3 [( Interface__i2_s1___addr_limit_0_m_axi_ [2:0] $end
$var reg 3 ^( R_Channel__i2_s0___arianer_top_0_M_AXI_ [2:0] $end
$var reg 3 a( R_Channel__i2_s1___addr_limit_0_m_axi_ [2:0] $end
$var reg 3 d( W_Channel__i2_s0___arianer_top_0_M_AXI_ [2:0] $end
$var reg 3 g( W_Channel__i2_s1___addr_limit_0_m_axi_ [2:0] $end
$var reg 16 j( ila_2___slot_0___arianer_top_0_M_AXI___Read_Transactions_0 [15:0] $end
$var reg 16 z( ila_2___slot_0___arianer_top_0_M_AXI___Write_Transactions_0 [15:0] $end
$var reg 1 ,) _TRIGGER $end
$var reg 1 -) _WINDOW $end
$var reg 1 .) _GAP $end
$upscope $end
$enddefinitions $end
#0
$dumpvars
1"
b1 #
b0 %
b1 e
b0 g
b0 k
b1 o
0w
b0 x
b0 {
b0 !"
b11 %"
0("
b0 )"
b0 +"
b0 k"
b0 m"
b0 q"
b0 u"
0}"
b0 ~"
b0 ##
b0 '#
b0 +#
0.#
b0 /#
b0 1#
b0 5#
b1 7#
b1111110011110100001111000010001100000000000101111000011110010011 9#
b0 y#
b0 }#
b0 !$
b0 a$
0i$
b10 j$
1l$
b10 m$
0p$
1q$
0r$
0s$
b0 t$
0v$
b10 w$
0y$
1z$
0{$
b110 |$
1!%
1"%
b1 #%
b1110000 %%
b1 D%
b0 F%
b0 J%
b1 Q%
0Y%
b0 Z%
b0 ]%
b11 a%
0d%
b0 e%
b111111111011000 g%
b0 (&
b0 *&
b1010 .&
b0 5&
0=&
b0 >&
b0 A&
b11 E&
0H&
b0 I&
b0 K&
b0 R&
0T&
b1 U&
b1 W&
b0 9'
b0 @'
0B'
b0 C'
b11111111 %(
0-(
b10 .(
00(
11(
b110 2(
05(
16(
17(
08(
b10 9(
1;(
0<(
b10 =(
1?(
b10 @(
0C(
1D(
0E(
b0 F(
b11 I(
b0 L(
b11 O(
b0 R(
b11 U(
b0 X(
b0 [(
b0 ^(
b0 a(
b0 d(
b100 g(
b0 j(
b0 z(
0,)
1-)
0.)
$end
#1
b11111111000000001111111100000000111111110000000011111111 W&
#2
b1 9#
b1001 y#
1{$
b111 |$
b1 X(
b111 ^(
#3
0{$
b100 |$
0!%
b0 X(
b0 ^(
#6
b0 #
b1000000000000000000000000111111111100000 %
b0 e
b1001 k
b0 o
b11 w$
1y$
b110111111111100100111111111000001101111 W&
b11 @(
1C(
b10 F(
b1 X(
b1 [(
b1 a(
b1 j(
#7
b1 #
b0 %
b1 e
b0 k
b1 o
b0 w$
0y$
0z$
b110 |$
1!%
b0 W&
b111 @(
1E(
b0 F(
b0 X(
b111 a(
#8
b10 w$
1z$
b0 #%
b0 U&
b110111111111100100111111111000001101111 W&
b0 @(
0C(
0D(
0E(
b0 [(
b0 a(
#9
b10 @(
1D(
#12
b110111111111100100111111111000001101111 9#
b0 y#
1{$
b11 |$
0"%
b111111111100000 %%
b0 D%
b1001 J%
b0 Q%
b1 X(
b1 ^(
#13
b0 9#
b111 |$
1"%
b111 ^(
#14
b0 #
b0 7#
0{$
b110 |$
b0 X(
b0 ^(
#23
b11111111000000001111111100000000111111110000000011111111 W&
#29
b1 7#
b1 9#
b1001 y#
1{$
b111 |$
b1 X(
b111 ^(
#30
b0 7#
0{$
b100 |$
0!%
b0 X(
b0 ^(
b0 j(
#39
b1000000000000000000000000111111111010000 +"
b1010 q"
b11 +#
1i$
b11 j$
b10 L(
b1 X(
b1 z(
#40
b1 )"
b0 +"
b0 q"
b0 +#
b1 /#
b10 !$
b11111111 a$
0i$
b0 j$
0l$
b111 m$
1p$
1r$
b0 L(
b111 d(
#41
b0 !$
b0 a$
b10 j$
1l$
b10 m$
0p$
0r$
b0 X(
b0 d(
#44
b10 C'
#45
b111111111010000 g%
#56
b1010 1#
1s$
b11 t$
1v$
b10 R(
b1 X(
#57
b1000000000000000000000000111111111010000 %
b0 e
b1001 k
b0 o
b0 )"
b0 /#
0s$
b0 t$
0v$
b11 w$
1y$
b10 F(
b0 R(
b10 j(
b0 z(
#58
b1 #
b0 %
b1 e
b0 k
b1 o
b0 1#
b1 7#
b0 w$
0y$
0z$
b110 |$
1!%
b0 F(
b0 X(
#59
b10 w$
1z$
#63
b111111111010000 %%
#79
b10 9#
1{$
b111 |$
b1 X(
b111 ^(
#80
b0 #
b0 7#
0{$
b100 |$
0!%
b0 X(
b0 ^(
b0 j(
#85
b1000000000000000000000000111111111010000 %
b0 e
b1001 k
b0 o
b11 w$
1y$
b10 F(
b1 X(
b10 j(
#86
b1 #
b0 %
b1 e
b0 k
b1 o
b1 7#
b0 w$
0y$
0z$
b110 |$
1!%
b0 F(
b0 X(
#87
b10 w$
1z$
#107
1{$
b111 |$
b1 X(
b111 ^(
#108
b0 #
b0 7#
0{$
b100 |$
0!%
b0 X(
b0 ^(
b0 j(
#109
b1000000000000000000000000111111111101000 +"
b1010 q"
b11 +#
1i$
b11 j$
b10 L(
b1 X(
b10 z(
#110
b1 )"
b0 +"
b0 q"
b0 +#
b1 /#
b10 !$
b11111111 a$
0i$
b0 j$
0l$
b111 m$
1p$
1r$
b0 L(
b111 d(
#111
b0 !$
b0 a$
b10 j$
1l$
b10 m$
0p$
0r$
b0 X(
b0 d(
#115
b111111111101000 g%
#126
b1010 1#
1s$
b11 t$
1v$
b10 R(
b1 X(
#127
b1000000000000000000000000111111111011000 %
b0 e
b1001 k
b0 o
b0 )"
b0 /#
0s$
b0 t$
0v$
b11 w$
1y$
b10 F(
b0 R(
b11 j(
b0 z(
#128
b1 #
b0 %
b1 e
b0 k
b1 o
b0 1#
b1 7#
b0 w$
0y$
0z$
b110 |$
1!%
b0 F(
b0 X(
#129
b10 w$
1z$
#133
b111111111011000 %%
#149
b0 9#
1{$
b111 |$
b1 X(
b111 ^(
#150
b0 #
b0 7#
0{$
b100 |$
0!%
b0 X(
b0 ^(
b0 j(
#151
b1000000000000000000000000111111111100000 +"
b1010 q"
b11 +#
1i$
b11 j$
b10 L(
b1 X(
b11 z(
#152
b1 )"
b0 +"
b0 q"
b0 +#
b1 /#
b10 !$
b11111111 a$
0i$
b0 j$
0l$
b111 m$
1p$
1r$
b0 L(
b111 d(
#153
b0 !$
b0 a$
b10 j$
1l$
b10 m$
0p$
0r$
b0 X(
b0 d(
#157
b111111111100000 g%
#168
b1010 1#
1s$
b11 t$
1v$
b10 R(
b1 X(
#169
b0 )"
b0 /#
0s$
b0 t$
0v$
b0 R(
b0 X(
b0 z(
#170
b0 1#
#171
b1000000000000000000000000111111111011000 +"
b1010 q"
b11 +#
1i$
b11 j$
b10 L(
b1 X(
b100 z(
#172
b1 )"
b0 +"
b0 q"
b0 +#
b1 /#
b1 !$
b11111111 a$
0i$
b0 j$
0l$
b111 m$
1p$
1r$
b0 L(
b111 d(
#173
b0 !$
b0 a$
b10 j$
1l$
b10 m$
0p$
0r$
b0 X(
b0 d(
#176
b1 C'
#177
b111111111011000 g%
#188
b1010 1#
1s$
b11 t$
1v$
b10 R(
b1 X(
#189
b1000000000000000000000000111111111011000 %
b0 e
b1001 k
b0 o
b0 )"
b0 /#
0s$
b0 t$
0v$
b11 w$
1y$
b10 F(
b0 R(
b11 j(
b0 z(
#190
b1 #
b0 %
b1 e
b0 k
b1 o
b0 1#
b1 7#
b0 w$
0y$
0z$
b110 |$
1!%
b0 F(
b0 X(
#191
b10 w$
1z$
#211
b1 9#
1{$
b111 |$
b1 X(
b111 ^(
#212
b0 #
b0 7#
0{$
b100 |$
0!%
b0 X(
b0 ^(
b0 j(
#217
b1000000000000000000000000111111111101000 %
b0 e
b1001 k
b0 o
b11 w$
1y$
b10 F(
b1 X(
b100 j(
#218
b1 #
b0 %
b1 e
b0 k
b1 o
b1 7#
b0 w$
0y$
0z$
b110 |$
1!%
b0 F(
b0 X(
#219
b10 w$
1z$
#223
b111111111101000 %%
#239
b10 9#
1{$
b111 |$
b1 X(
b111 ^(
#240
b0 #
b0 7#
0{$
b100 |$
0!%
b0 X(
b0 ^(
b0 j(
#243
b1000000000000000000000000111111111100000 %
b0 e
b1001 k
b0 o
b11 w$
1y$
b10 F(
b1 X(
b1 j(
#244
b1 #
b0 %
b1 e
b0 k
b1 o
b1 7#
b0 w$
0y$
0z$
b110 |$
1!%
b0 F(
b0 X(
#245
b10 w$
1z$
#249
b111111111100000 %%
#265
1{$
b111 |$
b1 X(
b111 ^(
#266
b0 #
b0 7#
0{$
b100 |$
0!%
b0 X(
b0 ^(
b0 j(
#275
b1000000000000000000000000111111111010000 +"
b1010 q"
b11 +#
1i$
b11 j$
b10 L(
b1 X(
b1 z(
#276
b1 )"
b0 +"
b0 q"
b0 +#
b1 /#
b100 !$
b11111111 a$
0i$
b0 j$
0l$
b111 m$
1p$
1r$
b0 L(
b111 d(
#277
b0 !$
b0 a$
b10 j$
1l$
b10 m$
0p$
0r$
b0 X(
b0 d(
#280
b100 C'
#281
b111111111010000 g%
#292
b1010 1#
1s$
b11 t$
1v$
b10 R(
b1 X(
#293
b1000000000000000000000000111111111010000 %
b0 e
b1001 k
b0 o
b0 )"
b0 /#
0s$
b0 t$
0v$
b11 w$
1y$
b10 F(
b0 R(
b10 j(
b0 z(
#294
b1 #
b0 %
b1 e
b0 k
b1 o
b0 1#
b1 7#
b0 w$
0y$
0z$
b110 |$
1!%
b0 F(
b0 X(
#295
b10 w$
1z$
#299
b111111111010000 %%
#315
b100 9#
1{$
b111 |$
b1 X(
b111 ^(
#316
b0 #
b0 7#
0{$
b100 |$
0!%
b0 X(
b0 ^(
b0 j(
#321
b1000000000000000000000000111111111010000 %
b0 e
b1001 k
b0 o
b11 w$
1y$
b10 F(
b1 X(
b10 j(
#322
b1 #
b0 %
b1 e
b0 k
b1 o
b1 7#
b0 w$
0y$
0z$
b110 |$
1!%
b0 F(
b0 X(
#323
b10 w$
1z$
#343
1{$
b111 |$
b1 X(
b111 ^(
#344
b0 #
b0 7#
0{$
b100 |$
0!%
b0 X(
b0 ^(
b0 j(
#345
b1000000000000000000000000111111111101000 +"
b1010 q"
b11 +#
1i$
b11 j$
b10 L(
b1 X(
b10 z(
#346
b1 )"
b0 +"
b0 q"
b0 +#
b1 /#
b100 !$
b11111111 a$
0i$
b0 j$
0l$
b111 m$
1p$
1r$
b0 L(
b111 d(
#347
b0 !$
b0 a$
b10 j$
1l$
b10 m$
0p$
0r$
b0 X(
b0 d(
#351
b111111111101000 g%
#362
b1010 1#
1s$
b11 t$
1v$
b10 R(
b1 X(
#363
b1000000000000000000000000111111111011000 %
b0 e
b1001 k
b0 o
b0 )"
b0 /#
0s$
b0 t$
0v$
b11 w$
1y$
b10 F(
b0 R(
b11 j(
b0 z(
#364
b1 #
b0 %
b1 e
b0 k
b1 o
b0 1#
b1 7#
b0 w$
0y$
0z$
b110 |$
1!%
b0 F(
b0 X(
#365
b10 w$
1z$
#369
b111111111011000 %%
#385
b1 9#
1{$
b111 |$
b1 X(
b111 ^(
#386
b0 #
b0 7#
0{$
b100 |$
0!%
b0 X(
b0 ^(
b0 j(
#387
b1000000000000000000000000111111111100000 +"
b1010 q"
b11 +#
1i$
b11 j$
b10 L(
b1 X(
b11 z(
#388
b1 )"
b0 +"
b0 q"
b0 +#
b1 /#
b100 !$
b11111111 a$
0i$
b0 j$
0l$
b111 m$
1p$
1r$
b0 L(
b111 d(
#389
b0 !$
b0 a$
b10 j$
1l$
b10 m$
0p$
0r$
b0 X(
b0 d(
#393
b111111111100000 g%
#404
b1010 1#
1s$
b11 t$
1v$
b10 R(
b1 X(
#405
b0 )"
b0 /#
0s$
b0 t$
0v$
b0 R(
b0 X(
b0 z(
#406
b0 1#
#407
b1000000000000000000000000111111111011000 +"
b1010 q"
b11 +#
1i$
b11 j$
b10 L(
b1 X(
b100 z(
#408
b1 )"
b0 +"
b0 q"
b0 +#
b1 /#
b10 !$
b11111111 a$
0i$
b0 j$
0l$
b111 m$
1p$
1r$
b0 L(
b111 d(
#409
b0 !$
b0 a$
b10 j$
1l$
b10 m$
0p$
0r$
b0 X(
b0 d(
#412
b10 C'
#413
b111111111011000 g%
#424
b1010 1#
1s$
b11 t$
1v$
b10 R(
b1 X(
#425
b1000000000000000000000000111111111011000 %
b0 e
b1001 k
b0 o
b0 )"
b0 /#
0s$
b0 t$
0v$
b11 w$
1y$
b10 F(
b0 R(
b11 j(
b0 z(
#426
b1 #
b0 %
b1 e
b0 k
b1 o
b0 1#
b1 7#
b0 w$
0y$
0z$
b110 |$
1!%
b0 F(
b0 X(
#427
b10 w$
1z$
#447
b10 9#
1{$
b111 |$
b1 X(
b111 ^(
#448
b0 #
b0 7#
0{$
b100 |$
0!%
b0 X(
b0 ^(
b0 j(
#453
b1000000000000000000000000111111111101000 %
b0 e
b1001 k
b0 o
b11 w$
1y$
b10 F(
b1 X(
b100 j(
#454
b1 #
b0 %
b1 e
b0 k
b1 o
b1 7#
b0 w$
0y$
0z$
b110 |$
1!%
b0 F(
b0 X(
#455
b10 w$
1z$
#459
b111111111101000 %%
#475
b100 9#
1{$
b111 |$
b1 X(
b111 ^(
#476
b0 #
b0 7#
0{$
b100 |$
0!%
b0 X(
b0 ^(
b0 j(
#479
b1000000000000000000000000111111111100000 %
b0 e
b1001 k
b0 o
b11 w$
1y$
b10 F(
b1 X(
b1 j(
#480
b1 #
b0 %
b1 e
b0 k
b1 o
b1 7#
b0 w$
0y$
0z$
b110 |$
1!%
b0 F(
b0 X(
#481
b10 w$
1z$
#485
b111111111100000 %%
#501
1{$
b111 |$
b1 X(
b111 ^(
#502
b0 #
b0 7#
0{$
b100 |$
0!%
b0 X(
b0 ^(
b0 j(
#511
b1000000000000000000000000111111111010000 +"
b1010 q"
b11 +#
1i$
b11 j$
b10 L(
b1 X(
b1 z(
#512
b1 )"
b0 +"
b0 q"
b0 +#
b1 /#
b1000 !$
b11111111 a$
0i$
b0 j$
0l$
b111 m$
1p$
1r$
b0 L(
b111 d(
1,)
#513
b0 !$
b0 a$
b10 j$
1l$
b10 m$
0p$
0r$
b0 X(
b0 d(
#516
b1000 C'
#517
b111111111010000 g%
#528
b1010 1#
1s$
b11 t$
1v$
b10 R(
b1 X(
#529
b1000000000000000000000000111111111010000 %
b0 e
b1001 k
b0 o
b0 )"
b0 /#
0s$
b0 t$
0v$
b11 w$
1y$
b10 F(
b0 R(
b10 j(
b0 z(
#530
b1 #
b0 %
b1 e
b0 k
b1 o
b0 1#
b1 7#
b0 w$
0y$
0z$
b110 |$
1!%
b0 F(
b0 X(
#531
b10 w$
1z$
#535
b111111111010000 %%
#551
b1000 9#
1{$
b111 |$
b1 X(
b111 ^(
#552
b0 #
b0 7#
0{$
b100 |$
0!%
b0 X(
b0 ^(
b0 j(
#557
b1000000000000000000000000111111111010000 %
b0 e
b1001 k
b0 o
b11 w$
1y$
b10 F(
b1 X(
b10 j(
#558
b1 #
b0 %
b1 e
b0 k
b1 o
b1 7#
b0 w$
0y$
0z$
b110 |$
1!%
b0 F(
b0 X(
#559
b10 w$
1z$
#579
1{$
b111 |$
b1 X(
b111 ^(
#580
b0 #
b0 7#
0{$
b100 |$
0!%
b0 X(
b0 ^(
b0 j(
#581
b1000000000000000000000000111111111101000 +"
b1010 q"
b11 +#
1i$
b11 j$
b10 L(
b1 X(
b10 z(
#582
b1 )"
b0 +"
b0 q"
b0 +#
b1 /#
b1000 !$
b11111111 a$
0i$
b0 j$
0l$
b111 m$
1p$
1r$
b0 L(
b111 d(
#583
b0 !$
b0 a$
b10 j$
1l$
b10 m$
0p$
0r$
b0 X(
b0 d(
#587
b111111111101000 g%
#598
b1010 1#
1s$
b11 t$
1v$
b10 R(
b1 X(
#599
b1000000000000000000000000111111111011000 %
b0 e
b1001 k
b0 o
b0 )"
b0 /#
0s$
b0 t$
0v$
b11 w$
1y$
b10 F(
b0 R(
b11 j(
b0 z(
#600
b1 #
b0 %
b1 e
b0 k
b1 o
b0 1#
b1 7#
b0 w$
0y$
0z$
b110 |$
1!%
b0 F(
b0 X(
#601
b10 w$
1z$
#605
b111111111011000 %%
#621
b10 9#
1{$
b111 |$
b1 X(
b111 ^(
#622
b0 #
b0 7#
0{$
b100 |$
0!%
b0 X(
b0 ^(
b0 j(
#623
b1000000000000000000000000111111111100000 +"
b1010 q"
b11 +#
1i$
b11 j$
b10 L(
b1 X(
b11 z(
#624
b1 )"
b0 +"
b0 q"
b0 +#
b1 /#
b1000 !$
b11111111 a$
0i$
b0 j$
0l$
b111 m$
1p$
1r$
b0 L(
b111 d(
#625
b0 !$
b0 a$
b10 j$
1l$
b10 m$
0p$
0r$
b0 X(
b0 d(
#629
b111111111100000 g%
#640
b1010 1#
1s$
b11 t$
1v$
b10 R(
b1 X(
#641
b0 )"
b0 /#
0s$
b0 t$
0v$
b0 R(
b0 X(
b0 z(
#642
b0 1#
#643
b1000000000000000000000000111111111011000 +"
b1010 q"
b11 +#
1i$
b11 j$
b10 L(
b1 X(
b100 z(
#644
b1 )"
b0 +"
b0 q"
b0 +#
b1 /#
b11 !$
b11111111 a$
0i$
b0 j$
0l$
b111 m$
1p$
1r$
b0 L(
b111 d(
#645
b0 !$
b0 a$
b10 j$
1l$
b10 m$
0p$
0r$
b0 X(
b0 d(
#648
b11 C'
#649
b111111111011000 g%
#660
b1010 1#
1s$
b11 t$
1v$
b10 R(
b1 X(
#661
b1000000000000000000000000111111111011000 %
b0 e
b1001 k
b0 o
b0 )"
b0 /#
0s$
b0 t$
0v$
b11 w$
1y$
b10 F(
b0 R(
b11 j(
b0 z(
#662
b1 #
b0 %
b1 e
b0 k
b1 o
b0 1#
b1 7#
b0 w$
0y$
0z$
b110 |$
1!%
b0 F(
b0 X(
#663
b10 w$
1z$
#683
b11 9#
1{$
b111 |$
b1 X(
b111 ^(
#684
b0 #
b0 7#
0{$
b100 |$
0!%
b0 X(
b0 ^(
b0 j(
